…
The output of the read functions that are part of the `tidyverse` are a special type of data frame called a `tibble`. To back up a step, what is a data frame? A data frame can be thought of as a table where each row represents a different entity and each column represents a different aspect of that entity. For example, the `metadata` variable stores the value of a data frame where each row represents a different person and each column represents various attributes of those people whether its their subject identification number, weight, height, location, diagnosis, smoking status, etc. Each row has the same number of columns. If a piece of data is missing, then R will denote the value for that entity with the `NA` value. Got it? Moving on, a `tibble` is a special type of data frame that is a stripped down version of the `data.frame` structure that is core to R. Keeping with the `.` for `_` theme, `data_frame` can be used as an alias for `tibble`.

There are some special aspects of a `tibble` to be aware of. Perhaps most important is that there are no names on the rows. Not allowing names on the rows is a safety measure to protect you from some weird quirks in R. Another difference is when you enter the name of the data frame at the prompt, instead of having the entire data frame vomited at your screen, you get an abbreviated output:


```r
metadata
```

```
## # A tibble: 490 x 17
##     sample fit_result Site  Dx_Bin dx    Hx_Prev Hx_of_Polyps   Age Gender
##      <dbl>      <dbl> <chr> <chr>  <chr>   <dbl>        <dbl> <dbl> <chr> 
##  1 2003650       0    U Mi… High … norm…    0            1.00  64.0 m     
##  2 2005650       0    U Mi… High … norm…    0            1.00  61.0 m     
##  3 2007660      26.0  U Mi… High … norm…    0            1.00  47.0 f     
##  4 2009650      10.0  Toro… Adeno… aden…    0            1.00  81.0 f     
##  5 2013660       0    U Mi… Normal norm…    0            0     44.0 f     
##  6 2015650       0    Dana… High … norm…    0            1.00  51.0 f     
##  7 2017660       7.00 Dana… Cancer canc…    1.00         1.00  78.0 m     
##  8 2019651      19.0  U Mi… Normal norm…    0            0     59.0 m     
##  9 2023680       0    Dana… High … norm…    1.00         1.00  63.0 f     
## 10 2025653    1509    U Mi… Cance… canc…    1.00         1.00  67.0 m     
## # ... with 480 more rows, and 8 more variables: Smoke <dbl>,
## #   Diabetic <dbl>, Hx_Fam_CRC <dbl>, Height <dbl>, Weight <dbl>,
## #   NSAID <dbl>, Diabetes_Med <dbl>, stage <dbl>
```
…
```r
metadata <- read_excel(path="raw_data/baxter.metadata.xlsx",
		col_types=c(sample = "text", fit_result = "numeric", Site = "text", Dx_Bin = "text",
				dx = "text", Hx_Prev = "logical", Hx_of_Polyps = "logical", Age = "numeric",
				Gender = "text", Smoke = "logical", Diabetic = "logical", Hx_Fam_CRC = "logical",
				Height = "logical", Weight = "numeric", NSAID = "logical", Diabetes_Med = "logical",
				stage = "text")
	)
metadata
```

```
## # A tibble: 490 x 17
##    sample  fit_result Site  Dx_Bin dx    Hx_Prev Hx_of_Polyps   Age Gender
##    <chr>        <dbl> <chr> <chr>  <chr> <lgl>   <lgl>        <dbl> <chr> 
##  1 2003650       0    U Mi… High … norm… F       T             64.0 m     
##  2 2005650       0    U Mi… High … norm… F       T             61.0 m     
##  3 2007660      26.0  U Mi… High … norm… F       T             47.0 f     
##  4 2009650      10.0  Toro… Adeno… aden… F       T             81.0 f     
##  5 2013660       0    U Mi… Normal norm… F       F             44.0 f     
##  6 2015650       0    Dana… High … norm… F       T             51.0 f     
##  7 2017660       7.00 Dana… Cancer canc… T       T             78.0 m     
##  8 2019651      19.0  U Mi… Normal norm… F       F             59.0 m     
##  9 2023680       0    Dana… High … norm… T       T             63.0 f     
## 10 2025653    1509    U Mi… Cance… canc… T       T             67.0 m     
## # ... with 480 more rows, and 8 more variables: Smoke <lgl>,
## #   Diabetic <lgl>, Hx_Fam_CRC <lgl>, Height <lgl>, Weight <dbl>,
## #   NSAID <lgl>, Diabetes_Med <lgl>, stage <chr>
```
…
```r
metadata <- rename_all(.tbl=metadata, .funs=tolower)
metadata
```

```
## # A tibble: 490 x 17
##    sample  fit_result site  dx_bin dx    hx_prev hx_of_polyps   age gender
##    <chr>        <dbl> <chr> <chr>  <chr> <lgl>   <lgl>        <dbl> <chr> 
##  1 2003650       0    U Mi… High … norm… F       T             64.0 male  
##  2 2005650       0    U Mi… High … norm… F       T             61.0 male  
##  3 2007660      26.0  U Mi… High … norm… F       T             47.0 female
##  4 2009650      10.0  Toro… Adeno… aden… F       T             81.0 female
##  5 2013660       0    U Mi… Normal norm… F       F             44.0 female
##  6 2015650       0    Dana… High … norm… F       T             51.0 female
##  7 2017660       7.00 Dana… Cancer canc… T       T             78.0 male  
##  8 2019651      19.0  U Mi… Normal norm… F       F             59.0 male  
##  9 2023680       0    Dana… High … norm… T       T             63.0 female
## 10 2025653    1509    U Mi… Cancer canc… T       T             67.0 male  
## # ... with 480 more rows, and 8 more variables: smoke <lgl>,
## #   diabetic <lgl>, hx_fam_crc <lgl>, height <lgl>, weight <dbl>,
## #   nsaid <lgl>, diabetes_med <lgl>, stage <chr>
```
…
