…
## Selecting columns from our data frames
Looking at the ordination data that is in our `pcoa` data frame, we see that there were a few hundred columns. When this is joined to the `metadata` data frame we get a very wide and obnoxiously large data frame. We really only need the first four columns of the `pcoa` data frame (i.e. "group", "axis1", "axis2", and "axis3"). We can do this with the `select` function from the `dplyr` package.


```r
select(pcoa, group, axis1, axis2, axis3)
```

```
## # A tibble: 490 x 4
##    group      axis1   axis2   axis3
##    <chr>      <dbl>   <dbl>   <dbl>
##  1 2003650 -0.109    0.0279 -0.200 
##  2 2005650 -0.222    0.169  -0.0667
##  3 2007660 -0.189   -0.0389 -0.147 
##  4 2009650 -0.161   -0.0237 -0.155 
##  5 2013660  0.319    0.0136 -0.0494
##  6 2015650 -0.225    0.172  -0.0871
##  7 2017660  0.00846 -0.155  -0.0670
##  8 2019651  0.171   -0.0903  0.0112
##  9 2023680 -0.299    0.122  -0.144 
## 10 2025653  0.333    0.0280  0.0304
## # … with 480 more rows
```

The resulting tibble still has 490 rows, but now it has the 4 columns we *selected*. If we want to remove specific columns we could also use a negative sign


```r
select(pcoa, -axis1)
```

```
## # A tibble: 490 x 490
##    group   axis2   axis3    axis4    axis5    axis6   axis7   axis8   axis9
##    <chr>   <dbl>   <dbl>    <dbl>    <dbl>    <dbl>   <dbl>   <dbl>   <dbl>
##  1 2003…  0.0279 -0.200  -0.199    0.0891   0.00139 -0.0142 -0.116   0.0842
##  2 2005…  0.169  -0.0667  0.00512 -0.0816  -0.0478   0.118   0.0840  0.0326
##  3 2007… -0.0389 -0.147   0.00898 -0.00153 -0.0361   0.136   0.0885 -0.0284
##  4 2009… -0.0237 -0.155  -0.0321  -0.0882   0.109    0.151  -0.119   0.0830
##  5 2013…  0.0136 -0.0494  0.00922 -0.0757  -0.240   -0.0645  0.104  -0.0361
##  6 2015…  0.172  -0.0871 -0.185    0.374   -0.0999  -0.0331  0.0943 -0.118 
##  7 2017… -0.155  -0.0670 -0.0939  -0.0938   0.0298  -0.154  -0.0244 -0.279 
##  8 2019… -0.0903  0.0112 -0.0738   0.0538   0.159   -0.209   0.198   0.172 
##  9 2023…  0.122  -0.144  -0.117    0.114    0.0295   0.231   0.0778 -0.0352
## 10 2025…  0.0280  0.0304  0.113    0.0410   0.0774   0.161  -0.0367 -0.182 
## # … with 480 more rows, and 481 more variables: axis10 <dbl>, axis11 <dbl>,
## #   axis12 <dbl>, axis13 <dbl>, axis14 <dbl>, axis15 <dbl>, axis16 <dbl>,
## #   axis17 <dbl>, axis18 <dbl>, axis19 <dbl>, axis20 <dbl>, axis21 <dbl>,
## #   axis22 <dbl>, axis23 <dbl>, axis24 <dbl>, axis25 <dbl>, axis26 <dbl>,
## #   axis27 <dbl>, axis28 <dbl>, axis29 <dbl>, axis30 <dbl>, axis31 <dbl>,
## #   axis32 <dbl>, axis33 <dbl>, axis34 <dbl>, axis35 <dbl>, axis36 <dbl>,
## #   axis37 <dbl>, axis38 <dbl>, axis39 <dbl>, axis40 <dbl>, axis41 <dbl>,
## #   axis42 <dbl>, axis43 <dbl>, axis44 <dbl>, axis45 <dbl>, axis46 <dbl>,
## #   axis47 <dbl>, axis48 <dbl>, axis49 <dbl>, axis50 <dbl>, axis51 <dbl>,
…
The result is that the "axis1" column has been removed. If we consider our `metadata` data frame, we could also select the sample column any column that starts with "diagnosis"


```r
select(metadata, sample, starts_with("diagnosis"))
```

```
## # A tibble: 490 x 3
##    sample  diagnosis_bin    diagnosis
##    <chr>   <chr>            <chr>    
##  1 2003650 High Risk Normal normal   
##  2 2005650 High Risk Normal normal   
##  3 2007660 High Risk Normal normal   
##  4 2009650 Adenoma          adenoma  
##  5 2013660 Normal           normal   
##  6 2015650 High Risk Normal normal   
##  7 2017660 Cancer           cancer   
##  8 2019651 Normal           normal   
##  9 2023680 High Risk Normal normal   
## 10 2025653 Cancer           cancer   
## # … with 480 more rows
```

This gets us a new data frame with the columns "sample", "diagnosis_bin", and "diagnosis". We could also get the "sample" column and any column that contains "history"


```r
select(metadata, sample, contains("history"))
```

```
## # A tibble: 490 x 4
##    sample  previous_history history_of_polyps family_history_of_crc
##    <chr>   <lgl>            <lgl>             <lgl>                
##  1 2003650 FALSE            TRUE              TRUE                 
##  2 2005650 FALSE            TRUE              FALSE                
##  3 2007660 FALSE            TRUE              TRUE                 
##  4 2009650 FALSE            TRUE              FALSE                
##  5 2013660 FALSE            FALSE             FALSE                
##  6 2015650 FALSE            TRUE              FALSE                
##  7 2017660 TRUE             TRUE              FALSE                
##  8 2019651 FALSE            FALSE             FALSE                
##  9 2023680 TRUE             TRUE              FALSE                
## 10 2025653 TRUE             TRUE              FALSE                
## # … with 480 more rows
```

This generates a data frame that contains the columns "sample", "previous_history", "history_of_polyps", and "family_history_of_crc". There are other helper functions including `ends_with`, `matches`, `num_range`, and `one_of` that you can learn more about by using the `?` helper.



## Selecting rows from our data frames
We might also want to make new data frames that contain a subset of the rows. We can "filter" the data frame using the `filter` function from the `dplyr` package. Let's assume that we want to recreate our favorite ordination using only samples from the University of Michigan. We can generate a new data frame using `filter`


```r
filter(metadata, site=="U Michigan")
```

```
## # A tibble: 107 x 19
##    sample fit_result site  diagnosis_bin diagnosis previous_history
##    <chr>       <dbl> <chr> <chr>         <chr>     <lgl>           
##  1 20036…          0 U Mi… High Risk No… normal    FALSE           
##  2 20056…          0 U Mi… High Risk No… normal    FALSE           
##  3 20076…         26 U Mi… High Risk No… normal    FALSE           
##  4 20136…          0 U Mi… Normal        normal    FALSE           
##  5 20196…         19 U Mi… Normal        normal    FALSE           
##  6 20256…       1509 U Mi… Cancer        cancer    TRUE            
##  7 20296…          0 U Mi… Adenoma       adenoma   FALSE           
##  8 20416…          0 U Mi… Adenoma       adenoma   FALSE           
##  9 20456…          0 U Mi… Normal        normal    FALSE           
## 10 20576…          0 U Mi… High Risk No… normal    FALSE           
## # … with 97 more rows, and 13 more variables: history_of_polyps <lgl>,
## #   age <dbl>, sex <chr>, smoke <lgl>, diabetic <lgl>,
## #   family_history_of_crc <lgl>, height <dbl>, weight <dbl>, nsaid <lgl>,
## #   diabetes_med <lgl>, stage <chr>, `na_if(height, 0)` <dbl>, `na_if(weight,
## #   0)` <dbl>
```

The resulting data frame has 107 samples. You'll notice that I used `site=="U Michigan"`. This tells `filter` to identify those rows where the "site" column had a value equal to "U Michigan". The `==` is a logical comparison that asks whether the value on either side of the `==` are the same. The answer is either `TRUE` or `FALSE`. There are other logical operators that you should already be familiar with (but perhaps didn't know!) including `<`, `<=`, `>`, `>=`. These should be self explanatory. For example, if we want ever subject that has a `fit_result` greater than or equal to 100 we would write


```r
filter(metadata, fit_result >= 100)
```

```
## # A tibble: 126 x 19
##    sample fit_result site  diagnosis_bin diagnosis previous_history
##    <chr>       <dbl> <chr> <chr>         <chr>     <lgl>           
##  1 20256…       1509 U Mi… Cancer        cancer    TRUE            
##  2 20936…        286 Dana… Normal        normal    TRUE            
##  3 21056…        314 U Mi… Normal        normal    FALSE           
##  4 21856…        982 Toro… Adv Adenoma   adenoma   FALSE           
##  5 21876…       1200 Toro… Cancer        cancer    FALSE           
##  6 22036…       1992 U Mi… Cancer        cancer    TRUE            
##  7 22556…        140 Dana… Cancer        cancer    TRUE            
##  8 22676…        149 Dana… Cancer        cancer    TRUE            
##  9 22836…       1346 Toro… Cancer        cancer    FALSE           
## 10 22876…        939 Dana… Cancer        cancer    TRUE            
## # … with 116 more rows, and 13 more variables: history_of_polyps <lgl>,
## #   age <dbl>, sex <chr>, smoke <lgl>, diabetic <lgl>,
## #   family_history_of_crc <lgl>, height <dbl>, weight <dbl>, nsaid <lgl>,
## #   diabetes_med <lgl>, stage <chr>, `na_if(height, 0)` <dbl>, `na_if(weight,
## #   0)` <dbl>
```

Some of our columns are already logical. To get those individuals with a previous history of colorectal cancer we could do


```r
filter(metadata, previous_history)
```

```
## # A tibble: 138 x 19
##    sample fit_result site  diagnosis_bin diagnosis previous_history
##    <chr>       <dbl> <chr> <chr>         <chr>     <lgl>           
##  1 20176…          7 Dana… Cancer        cancer    TRUE            
##  2 20236…          0 Dana… High Risk No… normal    TRUE            
##  3 20256…       1509 U Mi… Cancer        cancer    TRUE            
##  4 20336…          0 Toro… High Risk No… normal    TRUE            
##  5 20516…          0 Dana… Adenoma       adenoma   TRUE            
##  6 20556…          0 Dana… Adv Adenoma   adenoma   TRUE            
##  7 20636…          0 Dana… High Risk No… normal    TRUE            
##  8 20876…          5 Dana… High Risk No… normal    TRUE            
##  9 20936…        286 Dana… Normal        normal    TRUE            
## 10 21096…          0 Dana… Normal        normal    TRUE            
## # … with 128 more rows, and 13 more variables: history_of_polyps <lgl>,
## #   age <dbl>, sex <chr>, smoke <lgl>, diabetic <lgl>,
## #   family_history_of_crc <lgl>, height <dbl>, weight <dbl>, nsaid <lgl>,
## #   diabetes_med <lgl>, stage <chr>, `na_if(height, 0)` <dbl>, `na_if(weight,
## #   0)` <dbl>
```

If we want those samples from people ***without*** a previous history we can use the `!` operator which turns `TRUE` to `FALSE` and `FALSE` to `TRUE`


```r
filter(metadata, !previous_history)
```

```
## # A tibble: 349 x 19
##    sample fit_result site  diagnosis_bin diagnosis previous_history
##    <chr>       <dbl> <chr> <chr>         <chr>     <lgl>           
##  1 20036…          0 U Mi… High Risk No… normal    FALSE           
##  2 20056…          0 U Mi… High Risk No… normal    FALSE           
##  3 20076…         26 U Mi… High Risk No… normal    FALSE           
##  4 20096…         10 Toro… Adenoma       adenoma   FALSE           
##  5 20136…          0 U Mi… Normal        normal    FALSE           
##  6 20156…          0 Dana… High Risk No… normal    FALSE           
##  7 20196…         19 U Mi… Normal        normal    FALSE           
##  8 20276…          0 Toro… Normal        normal    FALSE           
##  9 20296…          0 U Mi… Adenoma       adenoma   FALSE           
## 10 20316…          0 Toro… Adenoma       adenoma   FALSE           
## # … with 339 more rows, and 13 more variables: history_of_polyps <lgl>,
## #   age <dbl>, sex <chr>, smoke <lgl>, diabetic <lgl>,
## #   family_history_of_crc <lgl>, height <dbl>, weight <dbl>, nsaid <lgl>,
## #   diabetes_med <lgl>, stage <chr>, `na_if(height, 0)` <dbl>, `na_if(weight,
## #   0)` <dbl>
```

The `!` can also be used as `!=` to test whether two values are different from each other. We could use this to get the samples from people that do not have a normal diagnosis


```r
filter(metadata, diagnosis != 'normal')
```

```
## # A tibble: 318 x 19
##    sample fit_result site  diagnosis_bin diagnosis previous_history
##    <chr>       <dbl> <chr> <chr>         <chr>     <lgl>           
##  1 20096…         10 Toro… Adenoma       adenoma   FALSE           
##  2 20176…          7 Dana… Cancer        cancer    TRUE            
##  3 20256…       1509 U Mi… Cancer        cancer    TRUE            
##  4 20296…          0 U Mi… Adenoma       adenoma   FALSE           
##  5 20316…          0 Toro… Adenoma       adenoma   FALSE           
##  6 20356…          0 Toro… Adv Adenoma   adenoma   FALSE           
##  7 20376…         72 Toro… Cancer        cancer    FALSE           
##  8 20416…          0 U Mi… Adenoma       adenoma   FALSE           
##  9 20496…          0 Dana… Adenoma       adenoma   FALSE           
## 10 20516…          0 Dana… Adenoma       adenoma   TRUE            
## # … with 308 more rows, and 13 more variables: history_of_polyps <lgl>,
## #   age <dbl>, sex <chr>, smoke <lgl>, diabetic <lgl>,
## #   family_history_of_crc <lgl>, height <dbl>, weight <dbl>, nsaid <lgl>,
## #   diabetes_med <lgl>, stage <chr>, `na_if(height, 0)` <dbl>, `na_if(weight,
## #   0)` <dbl>
```
…
```
filter(metadata, diagnosis="cancer")
```

Can you see what the problem is and how to fix it?

<input type="button" class="hideshow">
<div markdown="1" style="display:none;">

```r
filter(metadata, diagnosis=="cancer")
```

```
## # A tibble: 120 x 19
##    sample fit_result site  diagnosis_bin diagnosis previous_history
##    <chr>       <dbl> <chr> <chr>         <chr>     <lgl>           
##  1 20176…          7 Dana… Cancer        cancer    TRUE            
##  2 20256…       1509 U Mi… Cancer        cancer    TRUE            
##  3 20376…         72 Toro… Cancer        cancer    FALSE           
##  4 21876…       1200 Toro… Cancer        cancer    FALSE           
##  5 22036…       1992 U Mi… Cancer        cancer    TRUE            
##  6 22556…        140 Dana… Cancer        cancer    TRUE            
##  7 22676…        149 Dana… Cancer        cancer    TRUE            
##  8 22836…       1346 Toro… Cancer        cancer    FALSE           
##  9 22856…          0 U Mi… Cancer        cancer    FALSE           
## 10 22876…        939 Dana… Cancer        cancer    TRUE            
## # … with 110 more rows, and 13 more variables: history_of_polyps <lgl>,
## #   age <dbl>, sex <chr>, smoke <lgl>, diabetic <lgl>,
## #   family_history_of_crc <lgl>, height <dbl>, weight <dbl>, nsaid <lgl>,
## #   diabetes_med <lgl>, stage <chr>, `na_if(height, 0)` <dbl>, `na_if(weight,
## #   0)` <dbl>
```
…
---

### Activity 4
Create a data frame that contains only females

<input type="button" class="hideshow">
<div markdown="1" style="display:none;">

```r
filter(metadata, sex=="female")
```

```
## # A tibble: 243 x 19
##    sample fit_result site  diagnosis_bin diagnosis previous_history
##    <chr>       <dbl> <chr> <chr>         <chr>     <lgl>           
##  1 20076…         26 U Mi… High Risk No… normal    FALSE           
##  2 20096…         10 Toro… Adenoma       adenoma   FALSE           
##  3 20136…          0 U Mi… Normal        normal    FALSE           
##  4 20156…          0 Dana… High Risk No… normal    FALSE           
##  5 20236…          0 Dana… High Risk No… normal    TRUE            
##  6 20276…          0 Toro… Normal        normal    FALSE           
##  7 20316…          0 Toro… Adenoma       adenoma   FALSE           
##  8 20376…         72 Toro… Cancer        cancer    FALSE           
##  9 20396…          0 Toro… Normal        normal    FALSE           
## 10 20456…          0 U Mi… Normal        normal    FALSE           
## # … with 233 more rows, and 13 more variables: history_of_polyps <lgl>,
## #   age <dbl>, sex <chr>, smoke <lgl>, diabetic <lgl>,
## #   family_history_of_crc <lgl>, height <dbl>, weight <dbl>, nsaid <lgl>,
## #   diabetes_med <lgl>, stage <chr>, `na_if(height, 0)` <dbl>, `na_if(weight,
## #   0)` <dbl>
```
…
---

### Activity 5
Create a data frame that contains individuals are 50 years old and younger

<input type="button" class="hideshow">
<div markdown="1" style="display:none;">

```r
filter(metadata, age <= 50)
```

```
## # A tibble: 96 x 19
##    sample fit_result site  diagnosis_bin diagnosis previous_history
##    <chr>       <dbl> <chr> <chr>         <chr>     <lgl>           
##  1 20076…         26 U Mi… High Risk No… normal    FALSE           
##  2 20136…          0 U Mi… Normal        normal    FALSE           
##  3 20616…          0 Dana… High Risk No… normal    FALSE           
##  4 20736…          0 U Mi… High Risk No… normal    FALSE           
##  5 20776…          0 U Mi… Normal        normal    FALSE           
##  6 20816…          0 U Mi… High Risk No… normal    FALSE           
##  7 20836…          0 Dana… High Risk No… normal    FALSE           
##  8 20856…          7 Dana… Normal        normal    FALSE           
##  9 20876…          5 Dana… High Risk No… normal    TRUE            
## 10 20936…        286 Dana… Normal        normal    TRUE            
## # … with 86 more rows, and 13 more variables: history_of_polyps <lgl>,
## #   age <dbl>, sex <chr>, smoke <lgl>, diabetic <lgl>,
## #   family_history_of_crc <lgl>, height <dbl>, weight <dbl>, nsaid <lgl>,
## #   diabetes_med <lgl>, stage <chr>, `na_if(height, 0)` <dbl>, `na_if(weight,
## #   0)` <dbl>
```
…
If we want samples from people with a high fit result or a cancer diagnosis we can use a similar approach, except that instead of using `&` we would use `|`


```r
filter(metadata, fit_result >= 100 | diagnosis == "cancer")
```

```
## # A tibble: 156 x 19
##    sample fit_result site  diagnosis_bin diagnosis previous_history
##    <chr>       <dbl> <chr> <chr>         <chr>     <lgl>           
##  1 20176…          7 Dana… Cancer        cancer    TRUE            
##  2 20256…       1509 U Mi… Cancer        cancer    TRUE            
##  3 20376…         72 Toro… Cancer        cancer    FALSE           
##  4 20936…        286 Dana… Normal        normal    TRUE            
##  5 21056…        314 U Mi… Normal        normal    FALSE           
##  6 21856…        982 Toro… Adv Adenoma   adenoma   FALSE           
##  7 21876…       1200 Toro… Cancer        cancer    FALSE           
##  8 22036…       1992 U Mi… Cancer        cancer    TRUE            
##  9 22556…        140 Dana… Cancer        cancer    TRUE            
## 10 22676…        149 Dana… Cancer        cancer    TRUE            
## # … with 146 more rows, and 13 more variables: history_of_polyps <lgl>,
## #   age <dbl>, sex <chr>, smoke <lgl>, diabetic <lgl>,
## #   family_history_of_crc <lgl>, height <dbl>, weight <dbl>, nsaid <lgl>,
## #   diabetes_med <lgl>, stage <chr>, `na_if(height, 0)` <dbl>, `na_if(weight,
## #   0)` <dbl>
```

---

### Activity 7
Create a data frame that contains samples from individuals who are 50 years old and younger and have a non-normal diagnosis

<input type="button" class="hideshow">
<div markdown="1" style="display:none;">

```r
filter(metadata, age <= 50 & diagnosis != "normal")
```

```
## # A tibble: 46 x 19
##    sample fit_result site  diagnosis_bin diagnosis previous_history
##    <chr>       <dbl> <chr> <chr>         <chr>     <lgl>           
##  1 22036…       1992 U Mi… Cancer        cancer    TRUE            
##  2 23076…          0 Dana… Adv Adenoma   adenoma   TRUE            
##  3 23396…       1278 Dana… Cancer        cancer    TRUE            
##  4 23796…          0 Toro… Adv Adenoma   adenoma   FALSE           
##  5 24216…        133 MD A… Cancer        cancer    TRUE            
##  6 24636…         45 Dana… Cancer        cancer    TRUE            
##  7 24656…       1185 Dana… Cancer        cancer    TRUE            
##  8 25236…        392 MD A… Cancer        cancer    TRUE            
##  9 25456…        301 Dana… Adv Adenoma   adenoma   FALSE           
## 10 25556…          0 Toro… Adv Adenoma   adenoma   FALSE           
## # … with 36 more rows, and 13 more variables: history_of_polyps <lgl>,
## #   age <dbl>, sex <chr>, smoke <lgl>, diabetic <lgl>,
## #   family_history_of_crc <lgl>, height <dbl>, weight <dbl>, nsaid <lgl>,
## #   diabetes_med <lgl>, stage <chr>, `na_if(height, 0)` <dbl>, `na_if(weight,
## #   0)` <dbl>
```
…
