…
meta_alpha <- inner_join(metadata, alpha, by=c('sample'='group'))
```

Let's take on the first question I posed above, "What is the mean diversity across the three diagnosis groups?" We'll break the problem down by steps. An outline of what we want to get R to do is to group our data frame by a categorical variable (e.g. `diagnosis`) and then within each value of `diagnosis` we want it to calculate a summary statistic on another column (e.g. `shannon`). The first step will use a new verb - `group_by` - to group our data frame by a column. The output of this function will only be slightly different to us. See if you can spot the added wrinkle to the output that is created by using `group_by`


```r
group_by(meta_alpha, diagnosis)
```

```
## # A tibble: 490 x 23
## # Groups:   diagnosis [3]
##    sample fit_result site  diagnosis_bin diagnosis previous_history
##    <chr>       <dbl> <chr> <chr>         <chr>     <lgl>           
##  1 20036…          0 U Mi… High Risk No… normal    FALSE           
##  2 20056…          0 U Mi… High Risk No… normal    FALSE           
##  3 20076…         26 U Mi… High Risk No… normal    FALSE           
##  4 20096…         10 Toro… Adenoma       adenoma   FALSE           
##  5 20136…          0 U Mi… Normal        normal    FALSE           
##  6 20156…          0 Dana… High Risk No… normal    FALSE           
##  7 20176…          7 Dana… Cancer        cancer    TRUE            
##  8 20196…         19 U Mi… Normal        normal    FALSE           
##  9 20236…          0 Dana… High Risk No… normal    TRUE            
## 10 20256…       1509 U Mi… Cancer        cancer    TRUE            
## # … with 480 more rows, and 17 more variables: history_of_polyps <lgl>,
## #   age <dbl>, sex <chr>, smoke <lgl>, diabetic <lgl>,
## #   family_history_of_crc <lgl>, height <dbl>, weight <dbl>, nsaid <lgl>,
## #   diabetes_med <lgl>, stage <chr>, `na_if(height, 0)` <dbl>, `na_if(weight,
## #   0)` <dbl>, sobs <dbl>, shannon <dbl>, invsimpson <dbl>, coverage <dbl>
```

You should notice that above the column headings it says `Groups:  diagnosis[3]`. This indicates that we now have three groups in our data. We can actually write this two different ways and get the same result. The second way and the way that I prefer is


```r
meta_alpha %>%
	group_by(diagnosis)
```

```
## # A tibble: 490 x 23
## # Groups:   diagnosis [3]
##    sample fit_result site  diagnosis_bin diagnosis previous_history
##    <chr>       <dbl> <chr> <chr>         <chr>     <lgl>           
##  1 20036…          0 U Mi… High Risk No… normal    FALSE           
##  2 20056…          0 U Mi… High Risk No… normal    FALSE           
##  3 20076…         26 U Mi… High Risk No… normal    FALSE           
##  4 20096…         10 Toro… Adenoma       adenoma   FALSE           
##  5 20136…          0 U Mi… Normal        normal    FALSE           
##  6 20156…          0 Dana… High Risk No… normal    FALSE           
##  7 20176…          7 Dana… Cancer        cancer    TRUE            
##  8 20196…         19 U Mi… Normal        normal    FALSE           
##  9 20236…          0 Dana… High Risk No… normal    TRUE            
## 10 20256…       1509 U Mi… Cancer        cancer    TRUE            
## # … with 480 more rows, and 17 more variables: history_of_polyps <lgl>,
## #   age <dbl>, sex <chr>, smoke <lgl>, diabetic <lgl>,
## #   family_history_of_crc <lgl>, height <dbl>, weight <dbl>, nsaid <lgl>,
## #   diabetes_med <lgl>, stage <chr>, `na_if(height, 0)` <dbl>, `na_if(weight,
## #   0)` <dbl>, sobs <dbl>, shannon <dbl>, invsimpson <dbl>, coverage <dbl>
```

I prefer this second approach because it breaks up the commands a bit more and makes it more clear that the source of the data is the `meta_alpha` data frame. Again, the result is the same. If I had a huge data frame and didn't want to pipe every column through the pipeline, I could easily add a select line before the `group_by` line.


```r
meta_alpha %>%
	select(diagnosis, shannon) %>%
	group_by(diagnosis)
```

```
## # A tibble: 490 x 2
## # Groups:   diagnosis [3]
##    diagnosis shannon
##    <chr>       <dbl>
##  1 normal       4.02
##  2 normal       3.98
##  3 normal       3.91
##  4 adenoma      4.16
##  5 normal       3.33
##  6 normal       3.74
##  7 cancer       3.98
##  8 normal       3.69
##  9 normal       4.01
## 10 cancer       3.39
## # … with 480 more rows
```

Adding the same `select` function to the first approach would require more typing and moving things around. It isn't as flexible.


```r
select(meta_alpha, diagnosis) %>%
	group_by(diagnosis)
```

```
## # A tibble: 490 x 1
## # Groups:   diagnosis [3]
##    diagnosis
##    <chr>    
##  1 normal   
##  2 normal   
##  3 normal   
##  4 adenoma  
##  5 normal   
##  6 normal   
##  7 cancer   
##  8 normal   
##  9 normal   
## 10 cancer   
## # … with 480 more rows
```
…
---


## Creating new columns
Let's say we want to compare the diversity of people in the different diagnosis groups that have high and low fit results. Recall that the "fit result" column contains continuous values. Clinically, people with fit results over 100 will be referred for a colonoscopy. To get started, we'd like first create a new column that indicates whether someone has a low or high fit result. To achieve this we will make use of the `mutate` function in the `dplyr` package. You'll recall we used this function to help us clean up our metadata.


```r
meta_alpha %>%
	mutate(high_fit=fit_result>=100)
```

```
## # A tibble: 490 x 24
##    sample fit_result site  diagnosis_bin diagnosis previous_history
##    <chr>       <dbl> <chr> <chr>         <chr>     <lgl>           
##  1 20036…          0 U Mi… High Risk No… normal    FALSE           
##  2 20056…          0 U Mi… High Risk No… normal    FALSE           
##  3 20076…         26 U Mi… High Risk No… normal    FALSE           
##  4 20096…         10 Toro… Adenoma       adenoma   FALSE           
##  5 20136…          0 U Mi… Normal        normal    FALSE           
##  6 20156…          0 Dana… High Risk No… normal    FALSE           
##  7 20176…          7 Dana… Cancer        cancer    TRUE            
##  8 20196…         19 U Mi… Normal        normal    FALSE           
##  9 20236…          0 Dana… High Risk No… normal    TRUE            
## 10 20256…       1509 U Mi… Cancer        cancer    TRUE            
## # … with 480 more rows, and 18 more variables: history_of_polyps <lgl>,
## #   age <dbl>, sex <chr>, smoke <lgl>, diabetic <lgl>,
## #   family_history_of_crc <lgl>, height <dbl>, weight <dbl>, nsaid <lgl>,
## #   diabetes_med <lgl>, stage <chr>, `na_if(height, 0)` <dbl>, `na_if(weight,
## #   0)` <dbl>, sobs <dbl>, shannon <dbl>, invsimpson <dbl>, coverage <dbl>,
## #   high_fit <lgl>
```

Nice! Instead of getting back a boolean, I'd rather have it output as "high fit" or "low fit". We can get this using the `if_else` function from the `dplyr` package. This function asks a logical question (e.g. `fit_result>=100`) and if it is true then will return the second argument and if it is false, will return the third argument. We might do something like `if_else(fit_result>=100, "high fit", "low fit")`


```r
meta_alpha %>%
	mutate(fit_category=if_else(fit_result>=100, "high fit", "low fit"))
```

```
## # A tibble: 490 x 24
##    sample fit_result site  diagnosis_bin diagnosis previous_history
##    <chr>       <dbl> <chr> <chr>         <chr>     <lgl>           
##  1 20036…          0 U Mi… High Risk No… normal    FALSE           
##  2 20056…          0 U Mi… High Risk No… normal    FALSE           
##  3 20076…         26 U Mi… High Risk No… normal    FALSE           
##  4 20096…         10 Toro… Adenoma       adenoma   FALSE           
##  5 20136…          0 U Mi… Normal        normal    FALSE           
##  6 20156…          0 Dana… High Risk No… normal    FALSE           
##  7 20176…          7 Dana… Cancer        cancer    TRUE            
##  8 20196…         19 U Mi… Normal        normal    FALSE           
##  9 20236…          0 Dana… High Risk No… normal    TRUE            
## 10 20256…       1509 U Mi… Cancer        cancer    TRUE            
## # … with 480 more rows, and 18 more variables: history_of_polyps <lgl>,
## #   age <dbl>, sex <chr>, smoke <lgl>, diabetic <lgl>,
## #   family_history_of_crc <lgl>, height <dbl>, weight <dbl>, nsaid <lgl>,
## #   diabetes_med <lgl>, stage <chr>, `na_if(height, 0)` <dbl>, `na_if(weight,
## #   0)` <dbl>, sobs <dbl>, shannon <dbl>, invsimpson <dbl>, coverage <dbl>,
## #   fit_category <chr>
```
…
