…
```r
source('code/baxter.R')
ls()
```

Instead of seeing `metadata` we now see `get_metadata`. But how do we get a `metadata` data frame?


```r
metadata <- get_metadata()
metadata
```

```
## # A tibble: 490 x 17
##    sample fit_result site  diagnosis_bin diagnosis previous_history
##    <chr>       <dbl> <chr> <chr>         <fct>     <lgl>           
##  1 20036…          0 U Mi… High Risk No… normal    FALSE           
##  2 20056…          0 U Mi… High Risk No… normal    FALSE           
##  3 20076…         26 U Mi… High Risk No… normal    FALSE           
##  4 20096…         10 Toro… Adenoma       adenoma   FALSE           
##  5 20136…          0 U Mi… Normal        normal    FALSE           
##  6 20156…          0 Dana… High Risk No… normal    FALSE           
##  7 20176…          7 Dana… Cancer        cancer    TRUE            
##  8 20196…         19 U Mi… Normal        normal    FALSE           
##  9 20236…          0 Dana… High Risk No… normal    TRUE            
## 10 20256…       1509 U Mi… Cancer        cancer    TRUE            
## # … with 480 more rows, and 11 more variables: history_of_polyps <lgl>,
## #   age <dbl>, sex <chr>, smoke <lgl>, diabetic <lgl>,
## #   family_history_of_crc <lgl>, height <dbl>, weight <dbl>, nsaid <lgl>,
## #   diabetes_med <lgl>, stage <chr>
```
…
Frequently we may have continuous data that was collected in a specific order. Usually order is dictated by time. We could use a scatterplot like we did for the ordination, but to indicate that the samples are linked, we would like to connect them with a line segment. This is what we'll call a line plot. If you have two samples from the same individual or site that perhaps represent a pre and post time point and you connect the points with a line, this is a special type of line plot called a slope plot. The key is that for some data we can connect observations with a line and that line indicates that the points are connected.

For better or worse, microbial ecologists are frequently obsessed with plotting rarefaction curves. These curves indicate how well one has sampled the most abundant sequences and can be used to make comparisons based on a common number of sequences. Rarefaction is really a tool for asking the question, "How many types of things would I have observed if I had only sampled N things?" We can then compare the number of types across samples where we collected different numbers of things. The file `baxter.rarefaction` contains the rarefied version of the data in the `baxter.shared` file, both of which are in the `raw_data` folder.

Go ahead and write the code to read the rarefaction file into a variable called `rarefy`. Using the approach from the first session, take a look at this file to get a sense of what it looks like.


```r
rarefy <- read_tsv(file="raw_data/baxter.rarefaction")
rarefy
```

```
## # A tibble: 4,790 x 1,471
##    numsampled `0.03-2003650` `lci-2003650` `hci-2003650` `0.03-2005650`
##         <dbl>          <dbl>         <dbl>         <dbl>          <dbl>
##  1          1            1               1             1            1  
##  2        100           43.9            39            52           43.2
##  3        200           59.7            54            69           61.2
##  4        300           70.3            64            78           73.6
##  5        400           78.6            70            85           83.0
##  6        500           85.4            75            94           91.0
##  7        600           92.2            84           100           98.4
##  8        700           97.6            89           106          105. 
##  9        800          102.             94           111          111. 
## 10        900          107.             99           118          117. 
## # … with 4,780 more rows, and 1,466 more variables: `lci-2005650` <dbl>,
## #   `hci-2005650` <dbl>, `0.03-2007660` <dbl>, `lci-2007660` <dbl>,
## #   `hci-2007660` <dbl>, `0.03-2009650` <dbl>, `lci-2009650` <dbl>,
## #   `hci-2009650` <dbl>, `0.03-2013660` <dbl>, `lci-2013660` <dbl>,
## #   `hci-2013660` <dbl>, `0.03-2015650` <dbl>, `lci-2015650` <dbl>,
## #   `hci-2015650` <dbl>, `0.03-2017660` <dbl>, `lci-2017660` <dbl>,
## #   `hci-2017660` <dbl>, `0.03-2019651` <dbl>, `lci-2019651` <dbl>,
## #   `hci-2019651` <dbl>, `0.03-2023680` <dbl>, `lci-2023680` <dbl>,
## #   `hci-2023680` <dbl>, `0.03-2025653` <dbl>, `lci-2025653` <dbl>,
…
```r
read_tsv(file="raw_data/baxter.rarefaction") %>%
	select(starts_with("0.03"))
```

We need to remember that "numsampled" column in our `select` function call


```r
read_tsv(file="raw_data/baxter.rarefaction") %>%
	select("numsampled", starts_with("0.03"))
```

```
## # A tibble: 4,790 x 491
##    numsampled `0.03-2003650` `0.03-2005650` `0.03-2007660` `0.03-2009650`
##         <dbl>          <dbl>          <dbl>          <dbl>          <dbl>
##  1          1            1              1              1              1  
##  2        100           43.9           43.2           40.8           47.3
##  3        200           59.7           61.2           59.2           68.7
##  4        300           70.3           73.6           71.8           82.9
##  5        400           78.6           83.0           82.2           94.2
##  6        500           85.4           91.0           90.4          104. 
##  7        600           92.2           98.4           97.6          113. 
##  8        700           97.6          105.           104.           120. 
##  9        800          102.           111.           110.           127. 
## 10        900          107.           117.           116.           134. 
## # … with 4,780 more rows, and 486 more variables: `0.03-2013660` <dbl>,
## #   `0.03-2015650` <dbl>, `0.03-2017660` <dbl>, `0.03-2019651` <dbl>,
## #   `0.03-2023680` <dbl>, `0.03-2025653` <dbl>, `0.03-2027653` <dbl>,
## #   `0.03-2029650` <dbl>, `0.03-2031650` <dbl>, `0.03-2033650` <dbl>,
## #   `0.03-2035650` <dbl>, `0.03-2037653` <dbl>, `0.03-2039650` <dbl>,
## #   `0.03-2041650` <dbl>, `0.03-2043650` <dbl>, `0.03-2045653` <dbl>,
## #   `0.03-2049653` <dbl>, `0.03-2051660` <dbl>, `0.03-2055690` <dbl>,
## #   `0.03-2057650` <dbl>, `0.03-2059653` <dbl>, `0.03-2061650` <dbl>,
## #   `0.03-2063650` <dbl>, `0.03-2065651` <dbl>, `0.03-2067650` <dbl>,
…
