…
Oops we get an error. It doesn't like that we're trying to combine columns that are different types of data. Let's recast those columns to all be character vectors with the `as.character` function and try again


```r
meta_alpha %>%
	mutate(diagnosis = as.character(diagnosis),
		sex = as.character(sex), #unnecessary since it's already a character vector
		smoke = as.character(smoke)) %>%
	select(sample, shannon, diagnosis, sex, smoke) %>%
	pivot_longer(cols=c(diagnosis, sex, smoke), names_to="characteristic", values_to="value")
```

```
## # A tibble: 1,470 x 4
##    sample  shannon characteristic value  
##    <chr>     <dbl> <chr>          <chr>  
##  1 2003650    4.02 diagnosis      normal 
##  2 2003650    4.02 sex            male   
##  3 2003650    4.02 smoke          <NA>   
##  4 2005650    3.98 diagnosis      normal 
##  5 2005650    3.98 sex            male   
##  6 2005650    3.98 smoke          FALSE  
##  7 2007660    3.91 diagnosis      normal 
##  8 2007660    3.91 sex            female 
##  9 2007660    3.91 smoke          FALSE  
## 10 2009650    4.16 diagnosis      adenoma
## # … with 1,460 more rows
```
Nice. I notice that we do have a few `NA` values in the data frame so let's go ahead and drop those rows.


```r
meta_alpha %>%
	mutate(diagnosis = as.character(diagnosis),
		sex = as.character(sex), #unnecessary since it's already a character vector
		smoke = as.character(smoke)) %>%
	select(sample, shannon, diagnosis, sex, smoke) %>%
	pivot_longer(cols=c(diagnosis, sex, smoke), names_to="characteristic", values_to="value") %>%
	drop_na()
```

```
## # A tibble: 1,464 x 4
##    sample  shannon characteristic value  
##    <chr>     <dbl> <chr>          <chr>  
##  1 2003650    4.02 diagnosis      normal 
##  2 2003650    4.02 sex            male   
##  3 2005650    3.98 diagnosis      normal 
##  4 2005650    3.98 sex            male   
##  5 2005650    3.98 smoke          FALSE  
##  6 2007660    3.91 diagnosis      normal 
##  7 2007660    3.91 sex            female 
##  8 2007660    3.91 smoke          FALSE  
##  9 2009650    4.16 diagnosis      adenoma
## 10 2009650    4.16 sex            female 
## # … with 1,454 more rows
```
…
