…
```
Bacteria(100);Firmicutes(100);Clostridia(100);Clostridiales(100);Lachnospiraceae(100);Blautia(100);
```

Our goal is to strip out the confidence scores and create a separate column in our data frame for each taxonomic level, which is separated by a `;`.  Let's start by removing the parentheses and the numbers between them. From the output of `taxonomy` it appears that all of the confidence scores are `100`. This could be pretty easy.


```r
taxonomy %>%
	mutate(taxonomy=str_replace_all(string=taxonomy, pattern="\\(100\\)", replacement=""))
```

```
## # A tibble: 9,467 x 3
##    otu         size taxonomy                                                    
##    <chr>      <dbl> <chr>                                                       
##  1 Otu000001 1.30e6 Bacteria;Firmicutes;Clostridia;Clostridiales;Lachnospiracea…
##  2 Otu000002 9.98e5 Bacteria;Bacteroidetes;Bacteroidia;Bacteroidales;Bacteroida…
##  3 Otu000003 8.27e5 Bacteria;Bacteroidetes;Bacteroidia;Bacteroidales;Bacteroida…
##  4 Otu000004 7.61e5 Bacteria;Verrucomicrobia;Verrucomicrobiae;Verrucomicrobiale…
##  5 Otu000005 7.40e5 Bacteria;Firmicutes;Clostridia;Clostridiales;Lachnospiracea…
##  6 Otu000006 6.94e5 Bacteria;Firmicutes;Clostridia;Clostridiales;Ruminococcacea…
##  7 Otu000007 6.82e5 Bacteria;Bacteroidetes;Bacteroidia;Bacteroidales;Bacteroida…
##  8 Otu000008 5.57e5 Bacteria;Firmicutes;Clostridia;Clostridiales;Lachnospiracea…
##  9 Otu000009 5.51e5 Bacteria;Firmicutes;Clostridia;Clostridiales;Lachnospiracea…
## 10 Otu000010 4.94e5 Bacteria;Firmicutes;Clostridia;Clostridiales;unclassified;u…
## # … with 9,457 more rows
```

The output is too big too look out both in terms of the number of rows and the width of our taxonomy column. Let's use another string matching tool to see whether any rows still have parentheses in them. This time we can use either the `grepl` or `str_detect` functions. These functions will return a `TRUE` or `FALSE` if our pattern matches the string. This makes them great for use with the `filter` function in a `dplyr` workflow. We'll also use the `select` function so we can see more of the "taxonomy" column.


```r
taxonomy %>%
	mutate(taxonomy=str_replace_all(string=taxonomy, pattern="\\(100\\)", replacement="")) %>%
	filter(str_detect(taxonomy, pattern="\\(")) %>%
	select(taxonomy)
```

```
## # A tibble: 338 x 1
##    taxonomy                                                                     
##    <chr>                                                                        
##  1 Bacteria;Firmicutes;Clostridia;Clostridiales;Lachnospiraceae;Roseburia(97);  
##  2 Bacteria;Firmicutes;Clostridia;Clostridiales;Lachnospiraceae;Blautia(97);    
##  3 Bacteria;Firmicutes;Clostridia;Clostridiales;Ruminococcaceae;Ruminococcus(69…
##  4 Bacteria;Firmicutes;Clostridia;Clostridiales;Lachnospiraceae;Ruminococcus2(5…
##  5 Bacteria;Firmicutes;Clostridia;Clostridiales;Ruminococcaceae;unclassified(99…
##  6 Bacteria;Firmicutes;Clostridia;Clostridiales;Peptostreptococcaceae;Clostridi…
##  7 Bacteria;Firmicutes;Clostridia;Clostridiales;Ruminococcaceae;unclassified(91…
##  8 Bacteria;Firmicutes;Clostridia;Clostridiales;Lachnospiraceae;Blautia(88);    
##  9 Bacteria;Firmicutes;Erysipelotrichia;Erysipelotrichales;Erysipelotrichaceae;…
## 10 Bacteria;Firmicutes;Clostridia;Clostridiales;Lachnospiraceae;Ruminococcus2(9…
## # … with 328 more rows
```
…
Nice - there's nothing there, which means that our filter command returned nothing. Now we'd like to split the "taxonomy" column into separate columns for each taxonomic level. We can do this easily with the `separate` function. For this function to work, we need to give it a delimiter to separate the strings by (i.e. `sep=";"`) and values to place on the new columns (i.e. `into=c("kingdom", "phylum", ..., "genus")`). If it's going to separate data by the `;`, then we will end up with a seventh column that doesn't contain any information in it because the final character in our taxonomy strings is a `;`. We need an additional `mutate` line to remove that final semicolon before running `separate`. But how do we remove the last `;` and not all of them? Looking at the [cheat sheet](https://www.rstudio.com/wp-content/uploads/2016/09/RegExCheatsheet.pdf), can you figure out how we can tell `str_replace_all` to match the last semicolon in the strings?


```r
taxonomy %>%
	mutate(taxonomy=str_replace_all(string=taxonomy, pattern="\\(\\d*\\)", replacement="")) %>%
	mutate(taxonomy=str_replace_all(string=taxonomy, pattern=";$", replacement="")) %>%
	separate(taxonomy, into=c("kingdom", "phylum", "class", "order", "family", "genus"), sep=";")
```

```
## # A tibble: 9,467 x 8
##    otu        size kingdom  phylum    class     order      family      genus    
##    <chr>     <dbl> <chr>    <chr>     <chr>     <chr>      <chr>       <chr>    
##  1 Otu000… 1301902 Bacteria Firmicut… Clostrid… Clostridi… Lachnospir… Blautia  
##  2 Otu000…  998089 Bacteria Bacteroi… Bacteroi… Bacteroid… Bacteroida… Bacteroi…
##  3 Otu000…  826705 Bacteria Bacteroi… Bacteroi… Bacteroid… Bacteroida… Bacteroi…
##  4 Otu000…  761110 Bacteria Verrucom… Verrucom… Verrucomi… Verrucomic… Akkerman…
##  5 Otu000…  740489 Bacteria Firmicut… Clostrid… Clostridi… Lachnospir… Roseburia
##  6 Otu000…  694460 Bacteria Firmicut… Clostrid… Clostridi… Ruminococc… Faecalib…
##  7 Otu000…  682137 Bacteria Bacteroi… Bacteroi… Bacteroid… Bacteroida… Bacteroi…
##  8 Otu000…  556768 Bacteria Firmicut… Clostrid… Clostridi… Lachnospir… Anaerost…
##  9 Otu000…  551496 Bacteria Firmicut… Clostrid… Clostridi… Lachnospir… Blautia  
## 10 Otu000…  493735 Bacteria Firmicut… Clostrid… Clostridi… unclassifi… unclassi…
## # … with 9,457 more rows
```
…
<input type="button" class="hideshow">
<div markdown="1" style="display:none;">

```r
read_tsv(file="raw_data/baxter.cons.taxonomy") %>%
		rename_all(tolower) %>%
		mutate(taxonomy=str_replace_all(string=taxonomy, pattern="\\(\\d*\\)", replacement="")) %>%
		mutate(taxonomy=str_replace_all(string=taxonomy, pattern="unclassified;", replacement="")) %>%
		mutate(taxonomy=str_replace_all(string=taxonomy, pattern=";$", replacement="")) %>%
		mutate(taxonomy=str_replace_all(string=taxonomy, pattern=".*;", replacement=""))
```

```
## # A tibble: 9,467 x 3
##    otu          size taxonomy        
##    <chr>       <dbl> <chr>           
##  1 Otu000001 1301902 Blautia         
##  2 Otu000002  998089 Bacteroides     
##  3 Otu000003  826705 Bacteroides     
##  4 Otu000004  761110 Akkermansia     
##  5 Otu000005  740489 Roseburia       
##  6 Otu000006  694460 Faecalibacterium
##  7 Otu000007  682137 Bacteroides     
##  8 Otu000008  556768 Anaerostipes    
##  9 Otu000009  551496 Blautia         
## 10 Otu000010  493735 Clostridiales   
## # … with 9,457 more rows
```
…
